<svg id="card" xmlns="http://www.w3.org/2000/svg" width="50" height="33.334" viewBox="0 0 50 33.334">
  <rect id="Rectangle-path" width="50" height="15.706" transform="translate(0 8.814)" fill="#f9f9f9"/>
  <path id="Shape" d="M2.083,0H47.917A2.032,2.032,0,0,1,50,1.963V8.835H0V1.963A2.032,2.032,0,0,1,2.083,0Z" fill="#09599e"/>
  <path id="Shape-2" data-name="Shape" d="M0,0H50V6.871a2.032,2.032,0,0,1-2.083,1.963H2.083A2.032,2.032,0,0,1,0,6.871Z" transform="translate(0 24.499)" fill="#e59703"/>
  <path id="Shape-3" data-name="Shape" d="M2.083,33.284A2.031,2.031,0,0,1,0,31.323V1.961A2.031,2.031,0,0,1,2.083,0H47.917A2.031,2.031,0,0,1,50,1.961" fill="#fff" opacity="0.05"/>
  <g id="Group" transform="translate(8.838 12.397)">
    <path id="Shape-4" data-name="Shape" d="M0,8.295,1.512,0h2.4L2.4,8.295Z" transform="translate(10.482 0.098)" fill="#00589f"/>
    <path id="Shape-5" data-name="Shape" d="M7.2.344A6.988,6.988,0,0,0,5.058,0C2.66,0,.991,1.129.991,2.749c0,1.178,1.2,1.865,2.086,2.258.939.393,1.252.687,1.252,1.031,0,.54-.73.834-1.46.834A5.51,5.51,0,0,1,.626,6.43l-.313-.2L0,8.1a7.552,7.552,0,0,0,2.66.442c2.5,0,4.172-1.129,4.172-2.847,0-.933-.626-1.669-2.034-2.258C3.963,3.043,3.442,2.8,3.442,2.4c0-.344.417-.736,1.356-.736a5.188,5.188,0,0,1,1.773.294l.209.1L7.2.344" transform="translate(14.393 0)" fill="#00589f"/>
    <path id="Shape-6" data-name="Shape" d="M2.5,8.3H0L3.546.687A1.193,1.193,0,0,1,4.8,0H6.674L8.656,8.292l-2.242,0s-.009-.028-.02-.071C6.332,8,6.144,7.311,6.1,7.067H3.025c-.1.193-.517,1.217-.521,1.227ZM4.954,2.209c-.1.287-.3.765-.313.785C4.61,3.07,3.9,4.826,3.7,5.3V5.35H5.685c-.1-.437-.57-2.386-.574-2.405Z" transform="translate(21.068 0.147)" fill="#00589f"/>
    <path id="Shape-7" data-name="Shape" d="M5.945.049,3.6,5.693,3.338,4.565A6.685,6.685,0,0,0,0,1.08L2.19,8.295H4.746L8.552,0H5.945" transform="translate(2.503 0.098)" fill="#00589f"/>
    <path id="Shape-8" data-name="Shape" d="M3.911,0H.052L0,.2C3.025.883,5.006,2.552,5.841,4.515L5.006.736C4.9.2,4.433.049,3.911,0" transform="translate(0 0.098)" fill="#f9a51a"/>
  </g>
</svg>
